Global Terrorism 1970 to 2017
…
terrorism_data <- data[, c("iyear", "imonth", "iday", "country_txt", "region_txt", "latitude", "longitude", "attacktype1_txt", "targtype1_txt", "gname", "nkill", "nwound")]

# Handling missing values
terrorism_data[is.na(terrorism_data)] <- 0
hot_zones <- terrorism_data %>%
  group_by(country_txt) %>%
  summarize(total_attacks = n()) %>%
  arrange(desc(total_attacks))

# Print hot zones
print(hot_zones)

# A tibble: 205 × 2
   country_txt    total_attacks
   <chr>                  <int>
 1 Iraq                   24636
 2 Pakistan               14368
 3 Afghanistan            12731
 4 India                  11960
 5 Colombia                8306
 6 Philippines             6908
 7 Peru                    6096
 8 El Salvador             5320
 9 United Kingdom          5235
10 Turkey                  4292
# ℹ 195 more rows
…
